begin
  ndims             2
  nvars             1
  size              80 80
  iproc             1 1
  ghost             3
  n_iter            200
  time_scheme       rk
  time_scheme_type  ssprk3
  par_space_type    conservative-1stage
  par_space_scheme  2
  dt                0.05
  screen_op_iter    1
  file_op_iter      20
  op_file_format    tecplot2d
  op_overwrite      no
  model             linear-advection-diffusion-reaction
end
