begin
  ndims             2
  nvars             1
  size              120 60
  iproc             4 2
  ghost             3
  n_iter            300
  time_scheme       rk
  time_scheme_type  ssprk3
  hyp_space_scheme  crweno5
  dt                0.04
  screen_op_iter    1
  file_op_iter      15
  op_file_format    tecplot2d
  op_overwrite      no
  model             linear-advection-diffusion-reaction
end
