begin
  ndims             2
  nvars             4
  size              226 502
  iproc             1 1
  ghost             3
  n_iter            50000
  restart_iter      0
  time_scheme       rk
  time_scheme_type  ssprk3
  hyp_space_scheme  weno5
  hyp_interp_type   components
  par_space_type    nonconservative-2stage
  par_space_scheme  4
  dt                0.0008
  screen_op_iter    10
  file_op_iter      100
  ip_file_type      binary
  op_file_format    binary
  op_overwrite      yes
  model             navierstokes2d
end
