begin

  PM1               3.109260511864138
  H1                10.0
  D1                4.5
  E1                1.044225672060674
  Xd1               0.02

  PM2               1.0
  H2                3.64
  D2                1.0
  E2                1.034543707656856
  Xd2               0.2

  omegaB            376.991118431 
  alpha             4.386890097147679
  beta             -1.096722524286920

	tf                0.1
	tcl               0.3

	G
	                  7.6312576312576317E+00 -3.8156288156288158E+00 -3.8156288156288158E+00
	                 -3.8156288156288158E+00 6.8393346695233479E+00 -3.0237058538945329E+00
	                 -3.8156288156288158E+00 -3.0237058538945329E+00 6.8393346695233479E+00

	B
	                 -3.8053788156288157E+01 1.9078144078144078E+01 1.9078144078144078E+01
	                  1.9078144078144078E+01 -3.4081673347616743E+01 1.5118529269472663E+01
	                  1.9078144078144078E+01 1.5118529269472663E+01 -3.4081673347616743E+01

	Gf
	                  7.6312576312576317E+00 -3.8156288156288158E+00 -3.8156288156288158E+00
	                 -3.8156288156288158E+00 6.8393346695233479E+00 -3.0237058538945329E+00
	                 -3.8156288156288158E+00 -3.0237058538945329E+00 1.0068393346695234E+03

	Bf
	                 -3.8053788156288157E+01 1.9078144078144078E+01 1.9078144078144078E+01
	                  1.9078144078144078E+01 -3.4081673347616743E+01 1.5118529269472663E+01
	                  1.9078144078144078E+01 1.5118529269472663E+01 -3.4081673347616743E+01

	xmin              0.0   0.0   0.9   0.9 
	xmax              2.0   2.0   1.1   1.1 
  x0                0.058417047872067 0.169798193956055 1.0 1.0

	lambda
	                   0.0  0.0
	                   0.0  0.0
	sigma
	                   0.0  0.0
	                   0.0  0.0
end
